AIFM1	#FF89A9
AKT1	#16E516
APAF1	#00DDAB
APP	#FC76FF
ATM	#00DDAB
ATR	#00DDAB
BAD	#FF89A9
BAK1	#FF9400
BAX	#FF89A9
BBC3	#FF89A9
BCL2	#00DDAB
BCL2L1	#FF89A9
BCL2L11	#00DDAB
BID	#16B6FB
BIRC2	#00DDAB
BIRC5	#FF9400
BRAF	#00DDAB
CAPN1	#16E516
CAPN2	#ADACAD
CASP1	#ADACAD
CASP10	#ADACAD
CASP12	#FC76FF
CASP2	#FF9400
CASP3	#FF9400
CASP4	#ADACAD
CASP6	#FF9400
CASP7	#ADACAD
CASP8	#ADACAD
CASP9	#C8C600
CDK1	#FF9400
CDKN2A	#16B6FB
CFLAR	#ADACAD
CHUK	#00DDAB
CRADD	#FC76FF
CREB1	#00DDAB
CYCS	#16B6FB
CYLD	#00DDAB
DFFA	#FF9400
DFFB	#FF9400
DIABLO	#FF89A9
ENDOG	#FF89A9
FADD	#16E516
FAS	#ADACAD
FASLG	#ADACAD
FOXO1	#FC76FF
GZMB	#ADACAD
HELLS	#FF9400
HRAS	#FF89A9
HSP90AA1	#FF9400
HSPA4	#FF9400
HSPB1	#16E516
HTRA2	#FF89A9
HUWE1	#00DDAB
IGF1	#FC76FF
IGF1R	#00DDAB
IGF2	#FC76FF
IKBKB	#00DDAB
IKBKG	#FF89A9
ING2	#16E516
ITCH	#00DDAB
JAK1	#00DDAB
JAK2	#00DDAB
JAK3	#ADACAD
JUN	#FC76FF
KRAS	#00DDAB
LRDD	#FF89A9
LTA	#ADACAD
MAP2K4	#00DDAB
MAP3K1	#00DDAB
MAP3K14	#ADACAD
MAP3K5	#00DDAB
MAPK1	#00DDAB
MAPK10	#C8C600
MAPK3	#C8C600
MAPK8	#00DDAB
MCL1	#ADACAD
MDM2	#00DDAB
NFKB1	#ADACAD
NFKBIA	#ADACAD
NR2C2	#00DDAB
PDPK1	#00DDAB
PIK3CA	#00DDAB
PIK3CB	#00DDAB
PIK3CD	#ADACAD
PIK3CG	#ADACAD
PMAIP1	#FF9400
PRF1	#ADACAD
PRPS1	#C8C600
RIPK1	#ADACAD
ROCK1	#00DDAB
RPS6KA1	#ADACAD
RPS6KB1	#00DDAB
SIRT2	#C8C600
SRC	#16B6FB
STAT1	#ADACAD
STAT3	#ADACAD
TAB2	#00DDAB
TNF	#ADACAD
TNFAIP3	#ADACAD
TNFRSF10B	#ADACAD
TNFRSF1A	#ADACAD
TNFRSF1B	#ADACAD
TNFRSF21	#16B6FB
TNFRSF25	#16B6FB
TNFSF10	#ADACAD
TP53	#FF9400
TP63	#16E516
TP73	#16E516
TRADD	#FF89A9
TRAF1	#ADACAD
TRAF2	#FF89A9
TRAF3	#FF9400
XIAP	#00DDAB
YWHAB	#FF9400
YWHAE	#C8C600
YWHAG	#FF9400
YWHAH	#16B6FB
YWHAQ	#FF9400
YWHAZ	#FF9400
